(;GM[1]FF[4]AP[Drago:4.23]CA[UTF-8]SZ[9]AW[de][dd][dc][ec][fc][fd][fe][df][ff][eg][eh][dh][ch][bh][ah][fh]
[gh][hh][ih][hg][hf][if][bg][bf][be]AB[db][eb][fb][cc][cd][ce][gc][gd][ge][cf][gf][fg][dg][cg][gg][ee]
[af]C[A little harder now, capture something.]
(;B[ed];W[ef])
(;B[ef];W[ed]
(;B[ee];W[ef])
(;B[ef];W[ee]
;B[ef]TE[1]C[Ouch.
<br><a class="puzzleNext" onclick="loadTsumego('11-3','pzl3',tsumego)">Next puzzle</a>])))
