(;GM[1]FF[4]AP[Drago:4.23]SZ[19]CA[UTF-8]AB[cc][dd][cf][dk][cn][cq][dp][ep][eq][fp][gp][ho][po][pn][qn][rm]
[sn][qk][pk][ok][nj][pb][nc][kc][io][qj][ri][rj][qb]AW[cr][er][fq][gq][hp][ip][jp][nq][op][pp][qq][rp][ro][rn][qo][oj]
[pj][qi][qf][pd][qc][ic][fc][db][dq][dr][ph][rh][sh][rc]C[Is there a weak group? Can you threaten something big? Where would you play?]
(;B[hd]
;W[hc]C[Perfect! Great start. Pressure the weakest group to grow your own potential. Finish the sequence.]
(;B[fd];W[gd];B[ge]
;W[gc]CR[do][eo][fo][go][gn][gm][gk][gj][gi][gh][gg][gf][gl][dn][en][fn]
[fm][em][dm][cm][cl][dl][el][fl][fk][fj][ej][dj][cj][ck][dk][ek]
[ci][ei][fh][fg][ff][ee][ef][eg][eh][fi][di][dh][ch][cg][dg][df]
[de][fe][ce][be][bh][bk][bn][am][al][aj][ai][af][ae][ac][bc][bd]
[ad][cd][bf][ag][ah][bi][bj][ak][bl][bm][an][bg]TE[1]C[Now Black is threatening a huge moyo. It would now be time for 
some protective moves, and then let White try and fight to 
reduce.])
(;B[gd];W[gc]
;B[fd]CR[ae][be][ce][de][ee][fe][ge][he][hf][hg][hh][hi][hj][hk][hl][hm]
[hn][gn][go][fo][fn][fm][gm][gl][gk][gi][gh][gg][gf][ff][fg][fh]
[fj][fk][fl][gj][fi][ef][ei][el][em][en][eo][do][dl][ek][ej][dm]
[dn][bn][an][cm][bm][am][al][aj][ah][af][bf][bi][bk][bl][cl][ck]
[ak][bj][dj][di][ci][cj][ai][ag][bh][dh][eg][dg][df][cd][ad][bg]
[ch][eh][cg][bd]TE[1]C[Now Black is threatening a huge moyo. It would now be time for 
some protective moves, and then  let White try and fight to 
reduce.]))
(;B[fd]
;W[gc]CR[ac][bc][bd][ad][cd][be][ce][de][ee][fe][ae][ff][ef][df][af][bf]
[bn][an][dn][do][eo][fo][go][gn][fn][en][fm][fl][fk][fj][fi][fh]
[fg][eg][eh][ek][el][dm][dl][em][ej][ei][di][dj][dh][dg][cg][ci]
[ck][cl][cm][bm][bk][bh][bg][ch][cj][bj][bi][bl][am][ak][ag][ai]
[aj][ah][al]TE[1]C[Probably not THE best move, but the idea is solid. Attack White's 
weakest group in a way that grows Black's big moyo. Let White 
try and find a way to reduce all that potential.])
(;B[dh]
;W[fe]C[This is way too passive. Black had a chance to threaten a really big moyo. Now white fixed her weakest group and reduced a lot of Black's potential at the same time. It will be hard for Black to get back into the game now.])
(;B[ch]
;W[fe]C[This is way too passive. Black had a chance to threaten a really big moyo. Now white fixed her weakest group and reduced a lot of Black's potential at the same time. It will be hard for Black to get back into the game now.])
(;B[di]
;W[fe]C[This is way too passive. Black had a chance to threaten a really big moyo. Now white fixed her weakest group and reduced a lot of Black's potential at the same time. It will be hard for Black to get back into the game now.])
(;B[cp]
;W[fe]C[Oh no, giving up sente for this one little stone is way too small now. You have to keep the whole 19x19 board in mind. White will now reduce most of Black's potential while fixing her own weaknesses. Black will struggle to catch up.])
(;B[bq]
;W[fe]C[Oh no, giving up sente for this one little stone is way too small now. You have to keep the whole 19x19 board in mind. White will now reduce most of Black's potential while fixing her own weaknesses. Black will struggle to catch up.])
(;B[gd];W[gc]
(;B[fd];W[hd]
;B[he]TE[1]C[H16 would have been a better threat originally, but still the idea 
is solid. Pressure White's group to grow Black's moyo and then let 
White to worry about trying to reduce all that potential.])
(;B[hd];W[fd]
;B[fe]TE[1]C[H16 would have been a better threat originally, but still the idea 
is solid. Pressure White's group to grow Black's moyo and then let 
White to worry about trying to reduce all that potential.]))
(;B[bp]
;W[fe]C[Oh no, giving up sente for this one little stone is way too small now. You have to keep the whole 19x19 board in mind. White will now reduce most of Black's potential while fixing her own weaknesses. Black will struggle to catch up.])
(;B[fe]C[Now Black is threatening a huge moyo. Let White try and fight to 
reduce.]CR[ac][bc][ad][cd][bd][ae][de][ee][ce][be][af][bf][df][ef][fh][fj]
[fl][fn][fo][ff][fg][fi][fk][fm][eo][ei][eg][eh][ej][en][em][el]
[ek][dg][dh][di][dj][dl][dm][dn][do][ag][cg][bg][ah][bh][ch][ci]
[bi][ai][cj][ck][bj][aj][ak][bk][al][bl][cl][cm][bm][am][an][bn]TE[1]))
