(;GM[1]FF[4]AP[Drago:4.23]CA[UTF-8]SZ[9]AB[ba][cb][fa][fb][ec]AW[da][ea][eb][ca]C[Black to capture the whole White group with the next move!]
(;B[db]TE[1]C[Right on!
<br><a class="puzzleNext" onclick="loadTsumego('2-3','pzl3',tsumego)">Next puzzle</a>])
(;B[bb]C[To be fair, White would still not be able to escape after this move, but the assignment was to capture in one move.])
(;B[cc]C[To be fair, White would still not be able to escape after this move, but the assignment was to capture in one move.])
(;B[dc]C[To be fair, White would still not be able to escape after this move, but the assignment was to capture in one move.])
(;B[fc]C[To be fair, White would still not be able to escape after this move, but the assignment was to capture in one move.]))
