(;GM[1]FF[4]AP[Drago:4.23]CA[UTF-8]SZ[9]MA[gg]C[Can you kill White's group? Play X if you do not think so.]AB[ea][fb][fc][ec][bd][dc][cd][hb]AW[bb][cb][db][eb][ba][ab][fa]
(;B[gg]
;W[da]C[Too bad. It was possible to kill the whole white group.]LB[aa:1][ca:2])
(;B[ga]
;W[da]C[Not good enough, white has 2 eyes now.]LB[aa:1][ca:2])
(;B[da]
;W[ca]C[This (perhaps strange looking move) is correct. Even though your stones get captured, you took the only spot White needed for a second eye. Finish the deal.]
(;B[ga]
;W[ea]C[Nope.])
(;B[ea]
;W[da]LB[ea:A]TE[1]C[A is a false eye now and White has nowhere to get another one. 
The whole group will eventually die.]MA[ba][ca][da][db][cb][bb][ab][eb][fa]))
(;B[ac]
;W[da]C[Not good enough, white has 2 eyes now.]LB[aa:1][ca:2])
(;B[bc]
;W[da]C[Not good enough, white has 2 eyes now.]LB[aa:1][ca:2])
(;B[cc]
;W[da]C[Not good enough, white has 2 eyes now.]LB[aa:1][ca:2]))
