(;GM[1]FF[4]AP[Drago:4.23]CA[UTF-8]SZ[9]AW[fd][fe][ce][gc][gb][ga][hd][id][ib]AB[ed][fc][gd][ge][gf][fb]C[This problem actually has two solutions. You can either ladder the stone (being carefull to avoid the ladder breaker at A) or net it.]LB[ce:A]
(;B[ff]
;W[ee]C[This way the ladder will hit white ladder breaking stone. Black needs to push it a line further down first.]
(;B[de];W[ef];B[eg];W[df]
(;B[cf]
;W[dd]C[Does not work like this.])
(;B[dg]
;W[cf]C[Does not work like this.]))
(;B[ef];W[de]))
(;B[ef];W[ee];B[de];W[dd]
;B[ff]C[Very nice a net!]TE[1])
(;B[ee];W[ff];B[fg];W[ef];B[df]
;W[eg]MA[eg][ef][ff][fe][fd]C[A ladder works if you set it up correctly!]TE[1]))
